<?xml version="1.0" encoding="UTF-8"?>
<svg width="124px" height="124px" viewBox="0 0 124 124" version="1.1" xmlns="http://www.w3.org/2000/svg" xmlns:xlink="http://www.w3.org/1999/xlink">
    <!-- Generator: Sketch 52.4 (67378) - http://www.bohemiancoding.com/sketch -->
    <title>Group 7</title>
    <desc>Created with Sketch.</desc>
    <defs>
        <linearGradient x1="20.0320513%" y1="0%" x2="79.5773237%" y2="111.428285%" id="linearGradient-1">
            <stop stop-color="#87A5FF" offset="0%"></stop>
            <stop stop-color="#3552FB" offset="100%"></stop>
        </linearGradient>
        <circle id="path-2" cx="39" cy="39" r="39"></circle>
        <filter x="-52.6%" y="-39.7%" width="205.1%" height="205.1%" filterUnits="objectBoundingBox" id="filter-3">
            <feOffset dx="0" dy="10" in="SourceAlpha" result="shadowOffsetOuter1"></feOffset>
            <feGaussianBlur stdDeviation="12" in="shadowOffsetOuter1" result="shadowBlurOuter1"></feGaussianBlur>
            <feColorMatrix values="0 0 0 0 0   0 0 0 0 0   0 0 0 0 0  0 0 0 0.1 0" type="matrix" in="shadowBlurOuter1"></feColorMatrix>
        </filter>
    </defs>
    <g id="03-pロフィール/マイページ" stroke="none" stroke-width="1" fill="none" fill-rule="evenodd">
        <g id="03−03-プロフィール:-スクロール位置" transform="translate(-126.000000, -664.000000)" fill-rule="nonzero">
            <g id="Group-7" transform="translate(149.000000, 677.000000)">
                <g id="Group-6">
                    <g id="Oval">
                        <use fill="black" fill-opacity="1" filter="url(#filter-3)" xlink:href="#path-2"></use>
                        <use fill="url(#linearGradient-1)" xlink:href="#path-2"></use>
                    </g>
                    <g id="Lv0-/-Icons-/-profile-/-chat-white" transform="translate(25.000000, 27.000000)" fill="#FFFFFF">
                        <path d="M27.1426412,21.2978694 L27.1426412,25.7154978 C27.1443363,26.1361024 26.9711374,26.5322262 26.6656068,26.8125295 C26.3600761,27.0928328 25.9505297,27.2313378 25.5375817,27.1940176 C21.2618165,26.7291781 17.1291625,25.259045 13.4982087,22.9043847 C10.1112935,20.7521233 7.24949336,17.8903231 5.10458612,14.5148639 C2.7347375,10.8565519 1.26427058,6.7038001 0.80534276,2.3821744 C0.770398726,1.99347508 0.907933337,1.58512431 1.18660747,1.2798431 C1.46528161,0.974561882 1.85943323,0.800462414 2.27278023,0.800073154 L6.68902186,0.800073807 C7.44263049,0.792728015 8.07261139,1.33451158 8.17605689,2.06638929 C8.37518677,3.57669382 8.7479096,5.07290972 9.2852661,6.51295793 C9.48878983,7.05440243 9.35941228,7.66103942 8.95518818,8.06981269 L7.0908688,9.93409947 C6.62213928,10.402829 6.52438069,11.1269732 6.85204043,11.7032143 C9.07930217,15.6202038 12.3225112,18.8634128 16.2395007,21.0906745 C16.8157418,21.4183343 17.539886,21.3205757 18.0086155,20.8518462 L19.8787448,18.9817168 C20.2816755,18.5833027 20.8883125,18.4539251 21.4264349,18.6562047 C22.8698053,19.1948054 24.3660212,19.5675282 25.8898644,19.7685076 C26.6170745,19.8711597 27.1616409,20.5138747 27.1426412,21.2978694 Z" id="Combined-Shape"></path>
                    </g>
                </g>
            </g>
        </g>
    </g>
</svg>