<?xml version="1.0" encoding="UTF-8"?>
<svg width="28px" height="25px" viewBox="0 0 28 25" version="1.1" xmlns="http://www.w3.org/2000/svg" xmlns:xlink="http://www.w3.org/1999/xlink">
    <!-- Generator: Sketch 52.2 (67145) - http://www.bohemiancoding.com/sketch -->
    <title>Combined Shape</title>
    <desc>Created with Sketch.</desc>
    <g id="Symbols" stroke="none" stroke-width="1" fill="none" fill-rule="evenodd">
        <g id="Lv0-/-Icons-/-chat-/-camera-white" transform="translate(-6.000000, -8.000000)" fill="#FFFFFF" fill-rule="nonzero">
            <path d="M30.5,11.5 C32.432875,11.5 34,13.067125 34,15 L34,29 C34,30.932875 32.432875,32.5 30.5,32.5 L9.5,32.5 C7.567125,32.5 6,30.932875 6,29 L6,15 C6,13.067125 7.567125,11.5 9.5,11.5 L12.125,11.5 L13,9.75 C13.46375,8.83475 13.784,8 14.75,8 L25.25,8 C26.216,8 26.484625,8.732375 27,9.75 L27.875,11.5 L30.5,11.5 Z M27.5498563,21.5447862 C27.3967313,17.6824333 24.2261431,14.5961538 20.3266799,14.5961538 C18.4322534,14.5961538 16.7132902,15.330073 15.4230769,16.5215656 L16.6534813,17.7516097 C17.6284372,16.8732127 18.9139666,16.3331318 20.3266799,16.3331318 C23.2623563,16.3331318 25.6608343,18.6465803 25.8128784,21.5447862 L23.800996,21.5447862 L26.6963196,25.1635803 L29.5912828,21.5447862 L27.5498563,21.5447862 Z M19.9765017,27.0509949 C17.0901855,27.0509949 14.7284576,24.8139287 14.5047149,21.984539 L16.5021855,21.984539 L13.606862,18.3653846 L10.7115385,21.984539 L12.7659355,21.984539 C12.9914796,25.7777155 16.1260385,28.7883331 19.9765017,28.7883331 C21.8709282,28.7883331 23.5895311,28.0551346 24.8801046,26.8632817 L23.6497002,25.6328773 C22.6747443,26.5116346 21.3888546,27.0509949 19.9765017,27.0509949 Z" id="Combined-Shape"></path>
        </g>
    </g>
</svg>