<?xml version="1.0" encoding="UTF-8"?>
<svg width="28px" height="24px" viewBox="0 0 28 24" version="1.1" xmlns="http://www.w3.org/2000/svg" xmlns:xlink="http://www.w3.org/1999/xlink">
    <!-- Generator: Sketch 52.2 (67145) - http://www.bohemiancoding.com/sketch -->
    <title>Group</title>
    <desc>Created with Sketch.</desc>
    <g id="Symbols" stroke="none" stroke-width="1" fill="none" fill-rule="evenodd">
        <g id="Lv0-/-Icons-/-chat-/-camera" transform="translate(-6.000000, -8.000000)" fill-rule="nonzero">
            <g id="Group" transform="translate(6.000000, 8.000000)">
                <path d="M24,3.42857143 L21.4285714,3.42857143 L20.5714286,1.71428571 C20.0665714,0.717428571 19.8034286,0 18.8571429,0 L8.57142857,0 C7.62514286,0 7.31142857,0.817714286 6.85714286,1.71428571 L6,3.42857143 L3.42857143,3.42857143 C1.53514286,3.42857143 0,4.96371429 0,6.85714286 L0,20.5714286 C0,22.4648571 1.53514286,24 3.42857143,24 L24,24 C25.8934286,24 27.4285714,22.4648571 27.4285714,20.5714286 L27.4285714,6.85714286 C27.4285714,4.96371429 25.8934286,3.42857143 24,3.42857143 L24,3.42857143 Z" id="Path" fill="#4A4A4A"></path>
                <path d="M13.7142857,19.7142857 C9.92742857,19.7142857 6.85714286,16.644 6.85714286,12.8571429 C6.85714286,9.07028571 9.92742857,6 13.7142857,6 C17.5011429,6 20.5714286,9.07028571 20.5714286,12.8571429 C20.5714286,16.644 17.5011429,19.7142857 13.7142857,19.7142857 Z M13.7142857,17.1428571 C16.0810714,17.1428571 18,15.2239286 18,12.8571429 C18,10.4903571 16.0810714,8.57142857 13.7142857,8.57142857 C11.3475,8.57142857 9.42857143,10.4903571 9.42857143,12.8571429 C9.42857143,15.2239286 11.3475,17.1428571 13.7142857,17.1428571 Z" id="Combined-Shape" fill="#FFFFFF"></path>
            </g>
        </g>
    </g>
</svg>