<?xml version="1.0" encoding="UTF-8"?>
<svg width="18px" height="22px" viewBox="0 0 18 22" version="1.1" xmlns="http://www.w3.org/2000/svg" xmlns:xlink="http://www.w3.org/1999/xlink">
    <!-- Generator: Sketch 52.2 (67145) - http://www.bohemiancoding.com/sketch -->
    <title>Lv0 / Icons / chat / dust box</title>
    <desc>Created with Sketch.</desc>
    <g id="Symbols" stroke="none" stroke-width="1" fill="none" fill-rule="evenodd">
        <g id="Lv1-/-Lists-/-user-/-delete-chat-list-Left" transform="translate(-261.000000, -45.000000)" fill="#FFFFFF">
            <g id="Lv0-/-Icons-/-chat-/-dust-box-white" transform="translate(250.000000, 36.000000)">
                <path d="M15.8125,19.3125 C15.8125,18.933 16.1205,18.625 16.5,18.625 C16.8795,18.625 17.1875,18.933 17.1875,19.3125 L17.1875,27.5625 C17.1875,27.9426875 16.8795,28.25 16.5,28.25 C16.1205,28.25 15.8125,27.9426875 15.8125,27.5625 L15.8125,19.3125 L15.8125,19.3125 Z M19.25,19.3125 C19.25,18.933 19.558,18.625 19.9375,18.625 C20.317,18.625 20.625,18.933 20.625,19.3125 L20.625,27.5625 C20.625,27.9426875 20.317,28.25 19.9375,28.25 C19.558,28.25 19.25,27.9426875 19.25,27.5625 L19.25,19.3125 L19.25,19.3125 Z M22.6875,19.3125 C22.6875,18.933 22.9955,18.625 23.375,18.625 C23.7545,18.625 24.0625,18.933 24.0625,19.3125 L24.0625,27.5625 C24.0625,27.9426875 23.7545,28.25 23.375,28.25 C22.9955,28.25 22.6875,27.9426875 22.6875,27.5625 L22.6875,19.3125 L22.6875,19.3125 Z M12.375,28.25 C12.375,29.7686875 13.6063125,31 15.125,31 L24.75,31 C26.2686875,31 27.5,29.7686875 27.5,28.25 L27.5,17.25 L12.375,17.25 L12.375,28.25 L12.375,28.25 Z M22,11.75 L17.875,11.75 L17.875,11.0625 C17.875,10.6823125 18.183,10.375 18.5625,10.375 L21.3125,10.375 C21.692,10.375 22,10.6823125 22,11.0625 L22,11.75 L22,11.75 Z M27.5,11.75 L23.375,11.75 L23.375,10.375 C23.375,9.616 22.759,9 22,9 L17.875,9 C17.116,9 16.5,9.616 16.5,10.375 L16.5,11.75 L12.375,11.75 C11.616,11.75 11,12.366 11,13.125 L11,14.5 C11,15.259 11.6153125,15.8743125 12.3743125,15.875 L27.501375,15.875 C28.2596875,15.8743125 28.875,15.259 28.875,14.5 L28.875,13.125 C28.875,12.366 28.259,11.75 27.5,11.75 L27.5,11.75 Z" id="Fill-198"></path>
            </g>
        </g>
    </g>
</svg>