<?xml version="1.0" encoding="UTF-8"?>
<svg width="25px" height="28px" viewBox="0 0 25 28" version="1.1" xmlns="http://www.w3.org/2000/svg" xmlns:xlink="http://www.w3.org/1999/xlink">
    <!-- Generator: Sketch 52.2 (67145) - http://www.bohemiancoding.com/sketch -->
    <title>foot</title>
    <desc>Created with Sketch.</desc>
    <g id="Symbols" stroke="none" stroke-width="1" fill="none" fill-rule="evenodd">
        <g id="Lv0-/-Icons-/-footer-/-foot-step---default" transform="translate(-12.000000, -13.000000)" fill="#4A4A4A">
            <path d="M14.9237362,30.5238095 C14.9237362,30.5238095 12.6851127,26.6066443 12.1974675,24.5940412 C11.7098223,22.5818282 11.9143187,14.6433573 15.2802939,13.233365 C18.6459197,11.8237628 21.1984538,17.1325884 21.7609062,20.240812 C22.3230091,23.3494257 20.2392435,30.0733141 20.2392435,30.0733141 C17.3720995,28.5073061 14.9237362,30.5238095 14.9237362,30.5238095 Z M15.2857143,32.0348638 C15.2857143,32.0348638 16.9749455,32.3197546 18.3002638,32.1880978 C19.9109809,32.028281 21.1573925,31.6190476 21.1573925,31.6190476 C21.1573925,31.6190476 22.6566196,34.3139902 21.2661346,35.9688437 C19.875257,37.6240629 17.1170561,37.291995 16.2263134,36.0255293 C15.3355707,34.7590635 15.2857143,32.0348638 15.2857143,32.0348638 Z M32.9799697,33.5041703 C32.9799697,33.5041703 30.5671721,31.4452441 27.6731342,32.9609751 C27.6731342,32.9609751 25.707034,26.201744 26.3233041,23.1034139 C26.9399168,20.0054798 29.584714,14.7420106 32.9252261,16.2101364 C36.266081,17.6786583 36.3320008,25.6194891 35.8093119,27.6228851 C35.2866162,29.626671 32.9799697,33.5041703 32.9799697,33.5041703 Z M32.6265133,34.8946111 C32.6265133,34.8946111 32.8616863,37.6090987 32.108205,38.9617346 C31.3547236,40.3143705 28.6463429,40.9329297 27.0900672,39.4321643 C25.5342201,37.9317215 26.7435361,35.0948302 26.7435361,35.0948302 C26.7435361,35.0948302 28.0258962,35.3715363 29.6444951,35.3621118 C30.976315,35.3545139 32.6265133,34.8946111 32.6265133,34.8946111 Z" id="foot"></path>
        </g>
    </g>
</svg>