<?xml version="1.0" encoding="UTF-8"?>
<svg width="32px" height="18px" viewBox="0 0 32 18" version="1.1" xmlns="http://www.w3.org/2000/svg" xmlns:xlink="http://www.w3.org/1999/xlink">
    <!-- Generator: Sketch 52.4 (67378) - http://www.bohemiancoding.com/sketch -->
    <title>Group</title>
    <desc>Created with Sketch.</desc>
    <defs>
        <linearGradient x1="-124.992143%" y1="-10.7520738%" x2="-67.7321279%" y2="168.173277%" id="linearGradient-1">
            <stop stop-color="#87A5FF" offset="0%"></stop>
            <stop stop-color="#3552FB" offset="100%"></stop>
        </linearGradient>
    </defs>
    <g id="Symbols" stroke="none" stroke-width="1" fill="none" fill-rule="evenodd">
        <g id="Lv0-/-Icons-/-profile-/-video-call-request" transform="translate(-4.000000, -11.000000)" fill="url(#linearGradient-1)" fill-rule="nonzero">
            <g id="Group" transform="translate(4.000000, 11.000000)">
                <path d="M31.8333048,5.02252267 L31.8034936,8.96838602 L31.8034936,12.9816972 C31.8034936,14.1027906 30.9073036,15 29.7863248,15 C29.3848947,15 28.9876401,14.8864155 28.6654399,14.6558186 L25.5466139,12.843594 L25.4323266,12.7836466 C25.366526,12.7537825 25.3076741,12.7180142 25.2555189,12.6787471 L24,11.9338517 L24,6.05965143 L24.4938658,5.76982478 L25.3661059,5.25796485 L28.7703102,3.28475179 C29.7293353,2.71994887 30.9482935,3.02390874 31.5160606,3.94873438 C31.7478504,4.26953013 31.8333315,4.62400131 31.8333048,5.02252267 Z M25.3367001,12.7269117 L25.2926998,12.7008064 C25.3068504,12.7097802 25.3215184,12.7184991 25.3367001,12.7269117 Z M25.1305309,12.5656974 C25.140487,12.5766416 25.1510866,12.587594 25.1622972,12.5984629 C25.1512929,12.5876517 25.1407055,12.5767169 25.1305309,12.5656974 Z M29.8119365,4.99564258 C29.813715,4.99880818 29.8049541,4.99648634 29.7792681,5.0115859 L26.3737303,6.98558287 L26,7.20490764 L26,10.7949337 L26.1324976,10.8735441 L26.2311817,10.9282493 C26.3003672,10.9585216 26.3620306,10.9953054 26.4164416,11.0358964 L29.7203524,12.9556663 L29.8430962,13.0397928 C29.7988467,13.0043512 29.7847222,13 29.7863248,13 C29.8022248,13 29.8034936,12.9987298 29.8034936,12.9816972 L29.8035221,8.96083839 L29.8333333,5.01497504 C29.8333333,5.00952985 29.8464637,5.05994382 29.9027204,5.13030422 L30.6837607,4.50582363 L29.8119365,4.99564258 Z M26.3276999,10.9843321 L26.3793787,11.0143606 C26.3628467,11.0039738 26.3456186,10.9939375 26.3276999,10.9843321 Z M26.5446734,11.1514127 C26.5359374,11.1418205 26.5267038,11.1322175 26.5170035,11.122674 C26.526548,11.1321723 26.5357704,11.1417606 26.5446734,11.1514127 Z" id="Fill-1"></path>
                <path d="M18.7789504,1 L18.7789504,2 L3.92702232,2 C2.89038959,2 2,2.9890748 2,4.2238806 L2,13.7761194 C2,15.0199232 2.89743567,16 3.92702232,16 L18.7789504,16 C19.8155557,16 20.7058824,15.0109528 20.7058824,13.7761194 L20.7058824,4.2238806 C20.7058824,2.9800499 19.8085093,2 18.7789504,2 L18.7789504,1 Z M18.7789504,1 L18.7789504,0 C20.9543488,0 22.7058824,1.91290598 22.7058824,4.2238806 L22.7058824,13.7761194 C22.7058824,16.0713667 20.9697531,18 18.7789504,18 L3.92702232,18 C1.75161681,18 0,16.0870841 0,13.7761194 L0,4.2238806 C0,1.9286443 1.73621329,0 3.92702232,0 L18.7789504,0 L18.7789504,1 Z" id="Fill-3"></path>
            </g>
        </g>
    </g>
</svg>