<?xml version="1.0" encoding="UTF-8"?>
<svg width="25px" height="22px" viewBox="0 0 25 22" version="1.1" xmlns="http://www.w3.org/2000/svg" xmlns:xlink="http://www.w3.org/1999/xlink">
    <!-- Generator: Sketch 52.4 (67378) - http://www.bohemiancoding.com/sketch -->
    <title>Combined Shape</title>
    <desc>Created with Sketch.</desc>
    <defs>
        <linearGradient x1="0%" y1="9.75957771%" x2="100%" y2="141.015625%" id="linearGradient-1">
            <stop stop-color="#EC008C" offset="0%"></stop>
            <stop stop-color="#FC6767" offset="100%"></stop>
        </linearGradient>
    </defs>
    <g id="Symbols" stroke="none" stroke-width="1" fill="none" fill-rule="evenodd">
        <g id="Lv0-/-Icons-/-footer-/-fav---active" transform="translate(-12.000000, -14.000000)" fill="url(#linearGradient-1)" fill-rule="nonzero">
            <path d="M33.3485565,21.0000027 C34.2286763,20.9900358 35.0687712,21.3670793 35.6463241,22.0312652 C36.223877,22.695451 36.4806131,23.579763 36.3483017,24.4514703 L34.9685617,33.4497654 C34.7442554,34.9288666 33.464505,36.0166545 31.9798923,35.999807 L20.6999912,35.999807 C20.1477113,35.999807 19.7,35.5520956 19.7,34.9998157 L19.7,23.9999123 C19.7,23.8599951 19.729362,23.7216352 19.7861877,23.5937774 L23.7861526,14.5938563 C23.9466525,14.2327315 24.3047709,14 24.6999561,14 C26.9090757,14 28.699921,15.7908453 28.699921,17.9999649 L28.699921,20.9999499 L33.3485565,21.0000027 Z M16.7142857,36 L14.3571429,36 C13.0553288,36 12,34.7498413 12,33.2076923 L12,26.6923077 C12,25.1501587 13.0553288,23.9 14.3571429,23.9 L16.7142857,23.9 C17.1482237,23.9 17.5,24.3167196 17.5,24.8307692 L17.5,35.0692308 C17.5,35.5832804 17.1482237,36 16.7142857,36 Z" id="Combined-Shape"></path>
        </g>
    </g>
</svg>