<?xml version="1.0" encoding="UTF-8"?>
<svg width="14px" height="2px" viewBox="0 0 14 2" version="1.1" xmlns="http://www.w3.org/2000/svg" xmlns:xlink="http://www.w3.org/1999/xlink">
    <!-- Generator: Sketch 52.4 (67378) - http://www.bohemiancoding.com/sketch -->
    <title>Shape</title>
    <desc>Created with Sketch.</desc>
    <g id="Symbols" stroke="none" stroke-width="1" fill="none" fill-rule="evenodd">
        <g id="Lv0-/-Icons-/-close-plus-Copy" transform="translate(-6.000000, -12.000000)" fill="#EC008C" fill-rule="nonzero">
            <path d="M6.875,14 L19.125,14 C19.6082492,14 20,13.5522847 20,13 C20,12.4477153 19.6082492,12 19.125,12 L6.875,12 C6.39175084,12 6,12.4477153 6,13 C6,13.5522847 6.39175084,14 6.875,14 Z" id="Shape"></path>
        </g>
    </g>
</svg>