<?xml version="1.0" encoding="UTF-8"?>
<svg width="23px" height="28px" viewBox="0 0 23 28" version="1.1" xmlns="http://www.w3.org/2000/svg" xmlns:xlink="http://www.w3.org/1999/xlink">
    <!-- Generator: Sketch 52.4 (67378) - http://www.bohemiancoding.com/sketch -->
    <title>Movies</title>
    <desc>Created with Sketch.</desc>
    <g id="Symbols" stroke="none" stroke-width="1" fill="none" fill-rule="evenodd">
        <g id="Lv0-/-Icons-/-chat-/-movie" transform="translate(-9.000000, -6.000000)" fill="#4A4A4A">
            <path d="M27.6666667,11.6 L29.5333333,11.6 L29.5333333,13.4666667 L27.6666667,13.4666667 L27.6666667,11.6 Z M27.6666667,15.3333333 L29.5333333,15.3333333 L29.5333333,17.2 L27.6666667,17.2 L27.6666667,15.3333333 Z M27.6666667,19.0666667 L29.5333333,19.0666667 L29.5333333,20.9333333 L27.6666667,20.9333333 L27.6666667,19.0666667 Z M27.6666667,22.8 L29.5333333,22.8 L29.5333333,24.6666667 L27.6666667,24.6666667 L27.6666667,22.8 Z M27.6666667,26.5333333 L29.5333333,26.5333333 L29.5333333,28.4 L27.6666667,28.4 L27.6666667,26.5333333 Z M27.6666667,30.2666667 L29.5333333,30.2666667 L29.5333333,32.1333333 L27.6666667,32.1333333 L27.6666667,30.2666667 Z M25.8,18.1333333 C25.8,18.6494667 25.3818667,19.0666667 24.8666667,19.0666667 L15.5333333,19.0666667 C15.0181333,19.0666667 14.6,18.6494667 14.6,18.1333333 L14.6,8.8 C14.6,8.2848 15.0181333,7.86666667 15.5333333,7.86666667 L24.8666667,7.86666667 C25.3818667,7.86666667 25.8,8.2848 25.8,8.8 L25.8,18.1333333 L25.8,18.1333333 Z M25.8,31.2 C25.8,31.7161333 25.3818667,32.1333333 24.8666667,32.1333333 L15.5333333,32.1333333 C15.0181333,32.1333333 14.6,31.7161333 14.6,31.2 L14.6,21.8666667 C14.6,21.3514667 15.0181333,20.9333333 15.5333333,20.9333333 L24.8666667,20.9333333 C25.3818667,20.9333333 25.8,21.3514667 25.8,21.8666667 L25.8,31.2 L25.8,31.2 Z M10.8666667,11.6 L12.7333333,11.6 L12.7333333,13.4666667 L10.8666667,13.4666667 L10.8666667,11.6 Z M10.8666667,15.3333333 L12.7333333,15.3333333 L12.7333333,17.2 L10.8666667,17.2 L10.8666667,15.3333333 Z M10.8666667,19.0666667 L12.7333333,19.0666667 L12.7333333,20.9333333 L10.8666667,20.9333333 L10.8666667,19.0666667 Z M10.8666667,22.8 L12.7333333,22.8 L12.7333333,24.6666667 L10.8666667,24.6666667 L10.8666667,22.8 Z M10.8666667,26.5333333 L12.7333333,26.5333333 L12.7333333,28.4 L10.8666667,28.4 L10.8666667,26.5333333 Z M10.8666667,30.2666667 L12.7333333,30.2666667 L12.7333333,32.1333333 L10.8666667,32.1333333 L10.8666667,30.2666667 Z M27.6666667,6 L12.7333333,6 C10.6716,6 9,7.6716 9,9.73333333 L9,34 L12.7333333,34 L27.6666667,34 L31.4,34 L31.4,9.73333333 C31.4,7.6716 29.7284,6 27.6666667,6 L27.6666667,6 Z" id="Movies"></path>
        </g>
    </g>
</svg>