<?xml version="1.0" encoding="UTF-8"?>
<svg width="11px" height="20px" viewBox="0 0 11 20" version="1.1" xmlns="http://www.w3.org/2000/svg" xmlns:xlink="http://www.w3.org/1999/xlink">
    <!-- Generator: Sketch 52.4 (67378) - http://www.bohemiancoding.com/sketch -->
    <title>Path 2</title>
    <desc>Created with Sketch.</desc>
    <g id="Symbols" stroke="none" stroke-width="1" fill="none" fill-rule="evenodd" stroke-linecap="round" stroke-linejoin="round">
        <g id="Lv0-/-Icons-/-arrow-/-Left-White" transform="translate(-8.000000, -3.000000)" fill-rule="nonzero" stroke="#FFFFFF" stroke-width="2">
            <polyline id="Path-2" transform="translate(13.500000, 13.000000) scale(-1, 1) translate(-13.500000, -13.000000) " points="9 22 18 13.3396226 9 4"></polyline>
        </g>
    </g>
</svg>