<?xml version="1.0" encoding="UTF-8"?>
<svg width="80px" height="80px" viewBox="0 0 80 80" version="1.1" xmlns="http://www.w3.org/2000/svg" xmlns:xlink="http://www.w3.org/1999/xlink">
    <!-- Generator: Sketch 52.4 (67378) - http://www.bohemiancoding.com/sketch -->
    <title>Group</title>
    <desc>Created with Sketch.</desc>
    <defs>
        <linearGradient x1="0%" y1="-46.6552734%" x2="68.572998%" y2="100%" id="linearGradient-1">
            <stop stop-color="#87A5FF" offset="0%"></stop>
            <stop stop-color="#3552FB" offset="100%"></stop>
        </linearGradient>
        <circle id="path-2" cx="17" cy="17" r="17"></circle>
        <filter x="-120.6%" y="-91.2%" width="341.2%" height="341.2%" filterUnits="objectBoundingBox" id="filter-3">
            <feOffset dx="0" dy="10" in="SourceAlpha" result="shadowOffsetOuter1"></feOffset>
            <feGaussianBlur stdDeviation="12" in="shadowOffsetOuter1" result="shadowBlurOuter1"></feGaussianBlur>
            <feColorMatrix values="0 0 0 0 0   0 0 0 0 0   0 0 0 0 0  0 0 0 0.1 0" type="matrix" in="shadowBlurOuter1"></feColorMatrix>
        </filter>
    </defs>
    <g id="Symbols" stroke="none" stroke-width="1" fill="none" fill-rule="evenodd">
        <g id="Lv1-/-Bars-/-chat-/-input" transform="translate(-298.000000, 4.000000)" fill-rule="nonzero">
            <g id="Group" transform="translate(321.000000, 9.000000)">
                <g id="Oval">
                    <use fill="black" fill-opacity="1" filter="url(#filter-3)" xlink:href="#path-2"></use>
                    <use fill="url(#linearGradient-1)" xlink:href="#path-2"></use>
                </g>
                <g id="Lv0-/-Icons-/-profile-/-chat-white" transform="translate(8.187500, 8.187500)" fill="#FFFFFF">
                    <path d="M17.0639878,13.394401 L17.0639878,16.1679688 C17.065052,16.4320416 16.9563107,16.6807443 16.7644861,16.8567302 C16.5726614,17.0327161 16.3155314,17.1196751 16.0562658,17.096244 C13.3717655,16.8043987 10.7771162,15.8813891 8.49745489,14.403037 C6.371011,13.0517592 4.57425577,11.255004 3.22759526,9.13575264 C1.73970735,6.83891472 0.816488062,4.23164722 0.528354403,1.51835382 C0.506415109,1.27431248 0.592764964,1.01793316 0.767727987,0.826265126 C0.942691011,0.634597091 1.19015552,0.525290322 1.44967168,0.525045929 L4.22236884,0.525046339 C4.69551517,0.52043435 5.09104294,0.860588237 5.15599027,1.320091 C5.28101215,2.26832197 5.51502279,3.20770752 5.85239718,4.1118287 C5.98017771,4.45176971 5.89894918,4.83264123 5.64516076,5.08928581 L4.47466479,6.25976132 C4.18037722,6.55404888 4.11900038,7.00869622 4.32471857,7.37048396 C5.7230846,9.82973021 7.75930391,11.8659495 10.2185502,13.2643155 C10.5803379,13.4700337 11.0349852,13.4086569 11.3292728,13.1143693 L12.5034165,11.9402256 C12.7563929,11.6900849 13.1372644,11.6088564 13.4751197,11.7358558 C14.3813266,12.0740113 15.3207121,12.308022 16.2774433,12.4342051 C16.7340155,12.4986542 17.0759166,12.902177 17.0639878,13.394401 Z" id="Combined-Shape"></path>
                </g>
            </g>
        </g>
    </g>
</svg>