<?xml version="1.0" encoding="UTF-8"?>
<svg width="13px" height="7px" viewBox="0 0 13 7" version="1.1" xmlns="http://www.w3.org/2000/svg" xmlns:xlink="http://www.w3.org/1999/xlink">
    <!-- Generator: Sketch 52.4 (67378) - http://www.bohemiancoding.com/sketch -->
    <title>Group</title>
    <desc>Created with Sketch.</desc>
    <g id="Symbols" stroke="none" stroke-width="1" fill="none" fill-rule="evenodd">
        <g id="Lv0-/-Icons-/-user-thumbnail-/-movie" transform="translate(-3.000000, -6.000000)" fill="#FFFFFF">
            <g id="Group" transform="translate(3.000000, 6.000000)">
                <path d="M12.9230769,1.25291181 C12.7846154,1.01331115 12.4615385,0.923460899 12.2,1.07321131 L10.4461923,2.06156406 L10,2.31613977 L10,4.68219634 L10.4153846,4.921797 C10.4307692,4.921797 10.4307692,4.93677205 10.4461923,4.93677205 L12.1692308,5.91014975 C12.2461538,5.97004992 12.3538462,6 12.4615385,6 C12.7538846,6 12.9846538,5.77537438 12.9846538,5.49084859 L12.9846538,3.48419301 L13,1.50748752 C13,1.41763727 12.9846538,1.32778702 12.9230769,1.25291181" id="Fill-1"></path>
                <path d="M7.72778241,0 L1.27225686,0 C0.565447493,0 0,0.644278607 0,1.41044776 L0,2.60240672 L0,4.39759328 L0,5.58955224 C0,6.37313433 0.581154368,7 1.27225686,7 L7.72778241,7 C8.43459177,7 9,6.35572139 9,5.58955224 L9,4.39759328 L9,2.60240672 L9,1.41044776 C9,0.626865672 8.4188849,0 7.72778241,0" id="Fill-3"></path>
            </g>
        </g>
    </g>
</svg>