<?xml version="1.0" encoding="UTF-8"?>
<svg width="28px" height="26px" viewBox="0 0 28 26" version="1.1" xmlns="http://www.w3.org/2000/svg" xmlns:xlink="http://www.w3.org/1999/xlink">
    <!-- Generator: Sketch 52.4 (67378) - http://www.bohemiancoding.com/sketch -->
    <title>Combined Shape</title>
    <desc>Created with Sketch.</desc>
    <g id="Symbols" stroke="none" stroke-width="1" fill="none" fill-rule="evenodd">
        <g id="Lv0-/-Icons-/-timeline-/-comment" transform="translate(-6.000000, -7.000000)" fill="#BCBBBB" fill-rule="nonzero">
            <path d="M20.0001674,29.3730428 C18.4386785,29.3730428 16.3934093,28.9579225 16.3726519,28.9535463 C15.7201344,28.8191323 14.7565913,28.9954334 14.2108737,29.339283 L9.11494267,32.5527138 C9.10222042,32.5562565 9.42262026,30.8860852 10.0761422,27.5422 C10.2157522,26.8263677 9.82404075,25.8535859 9.16717085,25.2815452 C9.16549687,25.2796697 9.00278598,25.1324395 8.56955986,24.6444857 C6.88854878,22.748624 6,20.5161024 6,18.1873029 C6.0003348,12.018016 12.2804395,7 20.0001674,7 C27.7198953,7 34,12.018016 34,18.1869903 C34,24.3550268 27.7198953,29.3730428 20.0001674,29.3730428 Z M20,20.3913043 C21.00852,20.3913043 21.826087,19.5737374 21.826087,18.5652174 C21.826087,17.5566974 21.00852,16.7391304 20,16.7391304 C18.99148,16.7391304 18.173913,17.5566974 18.173913,18.5652174 C18.173913,19.5737374 18.99148,20.3913043 20,20.3913043 Z M13.9130435,20.3913043 C14.9215635,20.3913043 15.7391304,19.5737374 15.7391304,18.5652174 C15.7391304,17.5566974 14.9215635,16.7391304 13.9130435,16.7391304 C12.9045235,16.7391304 12.0869565,17.5566974 12.0869565,18.5652174 C12.0869565,19.5737374 12.9045235,20.3913043 13.9130435,20.3913043 Z M26.0869565,20.3913043 C27.0954765,20.3913043 27.9130435,19.5737374 27.9130435,18.5652174 C27.9130435,17.5566974 27.0954765,16.7391304 26.0869565,16.7391304 C25.0784365,16.7391304 24.2608696,17.5566974 24.2608696,18.5652174 C24.2608696,19.5737374 25.0784365,20.3913043 26.0869565,20.3913043 Z" id="Combined-Shape"></path>
        </g>
    </g>
</svg>