<?xml version="1.0" encoding="UTF-8"?>
<svg width="29px" height="26px" viewBox="0 0 29 26" version="1.1" xmlns="http://www.w3.org/2000/svg" xmlns:xlink="http://www.w3.org/1999/xlink">
    <!-- Generator: Sketch 52.4 (67378) - http://www.bohemiancoding.com/sketch -->
    <title>Group</title>
    <desc>Created with Sketch.</desc>
    <g id="Symbols" stroke="none" stroke-width="1" fill="none" fill-rule="evenodd">
        <g id="Lv0-/-Icons-/-timeline-/-fav" transform="translate(-5.000000, -7.000000)" fill="#EC008C" fill-rule="nonzero">
            <g id="Group" transform="translate(5.000000, 7.000000)">
                <path d="M25.2301122,8.27273046 C26.2702539,8.26095142 27.2630932,8.70654825 27.9456558,9.49149518 C28.6282183,10.2764421 28.9316336,11.3215381 28.7752656,12.3517376 L27.1446638,22.9860864 C26.8795746,24.7341151 25.3671423,26.0196826 23.6125999,25.9997719 L10.2818078,25.9997719 C9.62911338,25.9997719 9.1,25.4706585 9.1,24.8179641 L9.1,11.8180781 C9.1,11.6527215 9.13470051,11.4892053 9.20185819,11.3381005 L13.9290894,0.7018302 C14.1187712,0.275046293 14.5420019,-2.62414049e-16 15.0090391,0 C17.6198168,1.44327727e-15 19.7362703,2.11645352 19.7362703,4.72723125 L19.7362703,8.2726681 L25.2301122,8.27273046 Z" id="Path"></path>
                <path d="M5.57142857,26 L2.78571429,26 C1.24720677,26 0,24.5225397 0,22.7 L0,15 C-4.12368552e-16,13.1774603 1.24720677,11.7 2.78571429,11.7 L5.57142857,11.7 C6.08426441,11.7 6.5,12.1924868 6.5,12.8 L6.5,24.9 C6.5,25.5075132 6.08426441,26 5.57142857,26 Z" id="Path"></path>
            </g>
        </g>
    </g>
</svg>