<?xml version="1.0" encoding="UTF-8"?>
<svg width="30px" height="30px" viewBox="0 0 30 30" version="1.1" xmlns="http://www.w3.org/2000/svg" xmlns:xlink="http://www.w3.org/1999/xlink">
    <!-- Generator: Sketch 52.4 (67378) - http://www.bohemiancoding.com/sketch -->
    <title>Group</title>
    <desc>Created with Sketch.</desc>
    <g id="Symbols" stroke="none" stroke-width="1" fill="none" fill-rule="evenodd">
        <g id="Lv0-/-Icons-/-mymenu-/-notice-mark" transform="translate(-5.000000, -5.000000)">
            <g id="Group" transform="translate(5.000000, 5.000000)">
                <circle id="Oval-8" fill="#EC008C" fill-rule="nonzero" cx="15" cy="15" r="15"></circle>
                <text id="!" font-family="Helvetica" font-size="20" font-weight="normal" fill="#FFFFFF">
                    <tspan x="12" y="23">!</tspan>
                </text>
            </g>
        </g>
    </g>
</svg>