<?xml version="1.0" encoding="UTF-8"?>
<svg width="28px" height="28px" viewBox="0 0 28 28" version="1.1" xmlns="http://www.w3.org/2000/svg" xmlns:xlink="http://www.w3.org/1999/xlink">
    <!-- Generator: Sketch 52.4 (67378) - http://www.bohemiancoding.com/sketch -->
    <title>Combined Shape</title>
    <desc>Created with Sketch.</desc>
    <defs>
        <linearGradient x1="0%" y1="9.75957771%" x2="100%" y2="100%" id="linearGradient-1">
            <stop stop-color="#EC008C" offset="0%"></stop>
            <stop stop-color="#FC6767" offset="100%"></stop>
        </linearGradient>
    </defs>
    <g id="Symbols" stroke="none" stroke-width="1" fill="none" fill-rule="evenodd">
        <g id="Lv0-/-Icons-/--chat-/-start" transform="translate(-6.000000, -6.000000)" fill="url(#linearGradient-1)" fill-rule="nonzero">
            <path d="M20,34 C12.2680135,34 6,27.7319865 6,20 C6,12.2680135 12.2680135,6 20,6 C27.7319865,6 34,12.2680135 34,20 C34,27.7319865 27.7319865,34 20,34 Z M20,32 C26.627417,32 32,26.627417 32,20 C32,13.372583 26.627417,8 20,8 C13.372583,8 8,13.372583 8,20 C8,26.627417 13.372583,32 20,32 Z M18.5547002,15.1696311 L24.5547002,19.1696311 C25.1484333,19.5654532 25.1484333,20.4379097 24.5547002,20.8337317 L18.5547002,24.8337317 C17.8901455,25.2767682 17,24.8003768 17,24.0016814 L17,16.0016814 C17,15.202986 17.8901455,14.7265946 18.5547002,15.1696311 Z" id="Combined-Shape"></path>
        </g>
    </g>
</svg>