<?xml version="1.0" encoding="UTF-8"?>
<svg width="26px" height="25px" viewBox="0 0 26 25" version="1.1" xmlns="http://www.w3.org/2000/svg" xmlns:xlink="http://www.w3.org/1999/xlink">
    <!-- Generator: Sketch 52.4 (67378) - http://www.bohemiancoding.com/sketch -->
    <title>Group</title>
    <desc>Created with Sketch.</desc>
    <g id="Symbols" stroke="none" stroke-width="1" fill="none" fill-rule="evenodd">
        <g id="Lv0-/-Icons-/-chat-/-make-a-call-white" transform="translate(-7.000000, -8.000000)" fill="#FFFFFF">
            <g id="Group" transform="translate(7.000000, 8.000000)">
                <path d="M23.9478556,19.6344267 L23.9478556,23.6504525 C23.9493966,24.0328204 23.7919431,24.3929329 23.514188,24.6477541 C23.2364329,24.9025753 22.8641179,25.0284889 22.4887106,24.9945614 C18.6016514,24.5719801 14.8446931,23.2354955 11.5438261,21.0948952 C8.4648123,19.1382939 5.86317578,16.5366574 3.91326011,13.4680581 C1.75885227,10.14232 0.422064163,6.367091 0.00485705451,2.43834037 C-0.0269102495,2.08497735 0.0981212152,1.71374937 0.351461339,1.436221 C0.604801463,1.15869262 0.963121116,1.00042038 1.33889112,1.0000665 L5.35365623,1.0000671 C6.038755,0.993389104 6.6114649,1.48591962 6.70550627,2.15126299 C6.88653343,3.52426711 7.22537236,4.88446338 7.71387827,6.19359812 C7.89889985,6.68582039 7.78128389,7.23730857 7.41380744,7.60892063 L5.71897163,9.30372679 C5.29285389,9.72984454 5.20398244,10.3881574 5.50185494,10.912013 C7.52663834,14.4729125 10.4750102,17.4212844 14.0359097,19.4460678 C14.5597653,19.7439403 15.2180782,19.6550688 15.6441959,19.2289511 L17.3443135,17.5288335 C17.7106141,17.1666388 18.2621023,17.0490229 18.7513045,17.2329133 C20.0634593,17.7225503 21.4236556,18.0613893 22.8089676,18.2440979 C23.4700677,18.3374179 23.9651281,18.9217043 23.9478556,19.6344267 Z" id="Combined-Shape" fill-rule="nonzero"></path>
                <path d="M25.7874919,8.15092554 C25.8498959,10.642541 24.3842195,10.380983 24.3199839,8.30671258 C24.2557483,6.23244221 23.3598554,4.26188946 21.6765331,2.94673394 C19.9821787,1.62295916 17.8365344,1.23306536 15.7977144,1.68804277 C13.7588945,2.14302017 13.1476188,0.780299085 15.5929323,0.225719466 C18.0382457,-0.328860154 20.6127359,0.128004681 22.6408129,1.7125121 C24.6578578,3.28840025 25.7250879,5.65931011 25.7874919,8.15092554 Z M22.9266351,8.70596963 C23.047744,10.3448476 21.52653,10.0228197 21.433342,8.79370723 C21.340154,7.56459474 20.7474135,6.37691691 19.6945978,5.55436716 C18.6331368,4.7250629 17.3187187,4.43931008 16.0940514,4.65842513 C14.869384,4.87754018 14.1864816,3.48054258 15.8169619,3.18751309 C17.4474423,2.8944836 19.1974983,3.27604896 20.6114989,4.38078731 C22.0149329,5.47727014 22.8055262,7.06709171 22.9266351,8.70596963 Z" id="Combined-Shape"></path>
            </g>
        </g>
    </g>
</svg>