<?xml version="1.0" encoding="UTF-8"?>
<svg width="9px" height="13px" viewBox="0 0 9 13" version="1.1" xmlns="http://www.w3.org/2000/svg" xmlns:xlink="http://www.w3.org/1999/xlink">
    <!-- Generator: Sketch 52.4 (67378) - http://www.bohemiancoding.com/sketch -->
    <title>Shape</title>
    <desc>Created with Sketch.</desc>
    <g id="Symbols" stroke="none" stroke-width="1" fill="none" fill-rule="evenodd">
        <g id="Lv1-/-Lists-/-User-/-List" transform="translate(-218.000000, -18.000000)" fill="#BCBBBB" fill-rule="nonzero">
            <path d="M225.68264,19.3181659 C224.832649,18.4681754 223.702457,18 222.500455,18 C221.298219,18 220.168262,18.4681754 219.318271,19.3181659 C217.745249,20.8909535 217.549765,23.8501972 218.894918,25.6431093 L222.500455,30.8500641 L226.100595,25.6503843 C227.451146,23.8501972 227.255662,20.8909535 225.68264,19.3181659 Z M222.541993,24.1015335 C221.636384,24.1015335 220.899272,23.3644213 220.899272,22.4588129 C220.899272,21.5532045 221.636384,20.8160924 222.541993,20.8160924 C223.447601,20.8160924 224.184713,21.5532045 224.184713,22.4588129 C224.184713,23.3644213 223.447601,24.1015335 222.541993,24.1015335 Z" id="Shape"></path>
        </g>
    </g>
</svg>