<?xml version="1.0" encoding="UTF-8"?>
<svg width="14px" height="11px" viewBox="0 0 14 11" version="1.1" xmlns="http://www.w3.org/2000/svg" xmlns:xlink="http://www.w3.org/1999/xlink">
    <!-- Generator: Sketch 52.4 (67378) - http://www.bohemiancoding.com/sketch -->
    <title>View-3</title>
    <desc>Created with Sketch.</desc>
    <g id="06-お知らせ/お気に入り/足あと" stroke="none" stroke-width="1" fill="none" fill-rule="evenodd">
        <g id="06-01-お知らせ：最新ニュース" transform="translate(-148.000000, -374.000000)" fill="#EC008C">
            <g id="Group-Copy" transform="translate(148.000000, 372.000000)">
                <g id="View-3" transform="translate(0.000000, 2.000000)">
                    <path d="M13.7728889,4.61377778 C13.6608889,4.43022222 10.9728889,0.124444444 7.06844444,0.124444444 C3.164,0.124444444 0.476,4.43022222 0.364,4.61377778 C0.178704993,4.91416824 0.178704993,5.29338731 0.364,5.59377778 C0.476,5.77733333 3.164,10.0675556 7.06533333,10.08 L7.084,10.08 C10.976,10.08 13.664,5.77422222 13.776,5.59066667 C13.9590653,5.29044922 13.9578626,4.91282312 13.7728889,4.61377778 L13.7728889,4.61377778 Z M7.084,9.14666667 L7.084,9.14666667 C3.66177778,9.14666667 1.17288889,5.10222222 1.17288889,5.10222222 C1.17288889,5.10222222 3.66177778,1.05777778 7.084,1.05777778 C10.5062222,1.05777778 12.9951111,5.10222222 12.9951111,5.10222222 C12.9951111,5.10222222 10.4968889,9.14666667 7.084,9.14666667 Z" id="Shape"></path>
                    <path d="M7.06844444,2.61333333 C5.69386907,2.61333333 4.57955556,3.72764684 4.57955556,5.10222222 C4.57955556,6.4767976 5.69386907,7.59111111 7.06844444,7.59111111 C8.44301982,7.59111111 9.55733333,6.4767976 9.55733333,5.10222222 C9.55733333,3.72764684 8.44301982,2.61333333 7.06844444,2.61333333 Z M7.06844444,6.65777778 C6.20933483,6.65777778 5.51288889,5.96133183 5.51288889,5.10222222 C5.51288889,4.24311261 6.20933483,3.54666667 7.06844444,3.54666667 C7.92755406,3.54666667 8.624,4.24311261 8.624,5.10222222 C8.624,5.96133183 7.92755406,6.65777778 7.06844444,6.65777778 L7.06844444,6.65777778 Z" id="Shape"></path>
                </g>
            </g>
        </g>
    </g>
</svg>