<?xml version="1.0" encoding="UTF-8"?>
<svg width="26px" height="26px" viewBox="0 0 26 26" version="1.1" xmlns="http://www.w3.org/2000/svg" xmlns:xlink="http://www.w3.org/1999/xlink">
    <!-- Generator: Sketch 52.4 (67378) - http://www.bohemiancoding.com/sketch -->
    <title>Combined Shape</title>
    <desc>Created with Sketch.</desc>
    <g id="Symbols" stroke="none" stroke-width="1" fill="none" fill-rule="evenodd">
        <g id="Lv0-/-Icons-/-menu-/-plus-white-1" transform="translate(-7.000000, -7.000000)" fill="#FFFFFF" fill-rule="nonzero">
            <path d="M21,19 L31.375,19 C32.2724627,19 33,19.4477153 33,20 C33,20.5522847 32.2724627,21 31.375,21 L21,21 L21,31.375 C21,32.2724627 20.5522847,33 20,33 C19.4477153,33 19,32.2724627 19,31.375 L19,21 L8.625,21 C7.72753728,21 7,20.5522847 7,20 C7,19.4477153 7.72753728,19 8.625,19 L19,19 L19,8.625 C19,7.72753728 19.4477153,7 20,7 C20.5522847,7 21,7.72753728 21,8.625 L21,19 Z" id="Combined-Shape"></path>
        </g>
    </g>
</svg>