<?xml version="1.0" encoding="UTF-8"?>
<svg width="26px" height="26px" viewBox="0 0 26 26" version="1.1" xmlns="http://www.w3.org/2000/svg" xmlns:xlink="http://www.w3.org/1999/xlink">
    <!-- Generator: Sketch 52.2 (67145) - http://www.bohemiancoding.com/sketch -->
    <title>Lv0 / Icons / header / menu</title>
    <desc>Created with Sketch.</desc>
    <g id="Lv0-/-Icons-/-header-/-menu" stroke="none" stroke-width="1" fill="none" fill-rule="evenodd">
        <rect id="Rectangle-3" fill="#FFFFFF" fill-rule="nonzero" x="0" y="5" width="18" height="2" rx="1"></rect>
        <rect id="Rectangle-3-Copy" fill="#FFFFFF" fill-rule="nonzero" x="0" y="12" width="11" height="2" rx="1"></rect>
        <rect id="Rectangle-3-Copy-2" fill="#FFFFFF" fill-rule="nonzero" x="0" y="19" width="15" height="2" rx="1"></rect>
    </g>
</svg>