<?xml version="1.0" encoding="UTF-8"?>
<svg width="26px" height="26px" viewBox="0 0 26 26" version="1.1" xmlns="http://www.w3.org/2000/svg" xmlns:xlink="http://www.w3.org/1999/xlink">
    <!-- Generator: Sketch 52.4 (67378) - http://www.bohemiancoding.com/sketch -->
    <title>Lv0 / Icons / mypage / online notice</title>
    <desc>Created with Sketch.</desc>
    <defs>
        <linearGradient x1="0%" y1="9.75957771%" x2="100%" y2="100%" id="linearGradient-1">
            <stop stop-color="#EC008C" offset="0%"></stop>
            <stop stop-color="#FC6767" offset="100%"></stop>
        </linearGradient>
    </defs>
    <g id="03-pロフィール/マイページ" stroke="none" stroke-width="1" fill="none" fill-rule="evenodd">
        <g id="03−07-マイページ" transform="translate(-175.000000, -485.000000)" fill="url(#linearGradient-1)" fill-rule="nonzero">
            <g id="Group-3" transform="translate(0.000000, 478.000000)">
                <g id="Lv0-/-Icons-/-mypage-/-online-notice" transform="translate(168.000000, 0.000000)">
                    <path d="M27.0914069,22.3640169 L27.0914069,16.4547796 C27.0914069,12.5384817 23.9166201,9.36369493 20.0003221,9.36369493 C16.0840242,9.36369493 12.9092374,12.5384817 12.9092373,16.4547796 L12.9092373,22.3640169 C12.9092373,23.2250806 12.679027,24.0323758 12.2767967,24.7277119 L27.7238475,24.7277119 C27.3216173,24.0323758 27.0914069,23.2250806 27.0914069,22.3640169 Z M31.8187968,27.0914068 L8.18184747,27.0914068 C6.60605084,27.0914068 6.60605084,24.7277119 8.18184747,24.7277119 C9.48728013,24.7277119 10.5455424,23.6694496 10.5455424,22.3640169 L10.5455424,16.4547796 C10.5455425,11.233049 14.7785915,7 20.0003221,7 C25.2220527,7 29.4551018,11.233049 29.4551019,16.4547796 L29.4551019,22.3640169 C29.4551019,23.6694496 30.5133641,24.7277119 31.8187968,24.7277119 C33.3945934,24.7277119 33.3945934,27.0914068 31.8187968,27.0914068 Z M23.0672163,31.229967 C22.4329227,32.32342 21.2644296,32.996456 20.0003221,32.996456 C18.7362146,32.996456 17.5677215,32.32342 16.933428,31.229967 C16.4763829,30.4420712 17.0448638,29.4551017 17.955726,29.4551017 L22.0449182,29.4551017 C22.9557805,29.4551017 23.5242613,30.4420712 23.0672163,31.229967 Z" id="Shape"></path>
                </g>
            </g>
        </g>
    </g>
</svg>