<svg width="12px" height="12px" viewBox="0 0 20 20" version="1.1" xmlns="http://www.w3.org/2000/svg" xmlns:xlink="http://www.w3.org/1999/xlink">
    <defs>
        <linearGradient x1="7.4375%" y1="4.07660017e-15%" x2="100%" y2="100%" id="linearGradient-1">
            <stop stop-color="#EC008C" offset="0%"></stop>
            <stop stop-color="#FC6767" offset="100%"></stop>
        </linearGradient>
    </defs>
    <g id="Symbols" stroke="none" stroke-width="1" fill="none" fill-rule="evenodd" stroke-linecap="round" stroke-linejoin="round">
        <g id="Lv0-/-Icons-/-Ranking-/-UP" transform="translate(-3.000000, -1.000000)" fill-rule="nonzero" stroke="url(#linearGradient-1)" stroke-width="2">
            <g id="icon_rank-up" transform="translate(3.000000, 2.000000)">
                <path d="M0.9928586,18.0071414 L18.5,0.5" id="Path-3"></path>
                <polyline id="Path-4" points="5 0 19 7.57727214e-15 19 14"></polyline>
            </g>
        </g>
    </g>
</svg>
